................
----------------------------------------------------------------------
Ran 16 tests in 0.380s

OKName             Stmts   Miss  Cover   Missing
----------------------------------------------
Collatz.py          33      0   100%
TestCollatz.py      68      0   100%
----------------------------------------------
TOTAL              101      0   100%
