1 10 20
100 200 125
201 210 89
900 1000 174
2791 5531 238
1603 5581 238
1064 6999 262
9370 9853 211
8304 9281 260
1482 5065 238
2604 8521 262
2945 5263 238
8043 9217 247
6302 6610 244
5232 8758 262
8960 9133 185
4460 8070 262
6985 7666 239
7371 7669 239
2538 9896 262
2029 4305 238
3936 5676 236
3398 9119 262
1849 6958 262
7627 9690 260
6354 6493 200
4185 6768 262
1678 3787 238
4890 5577 236
7194 8349 252
2759 3851 238
5837 6759 262
6846 9637 260
7885 8563 252
2266 5033 238
2684 5468 238
2451 7236 262
2514 5167 238
9657 9690 185
9789 9839 167
1996 1997 51
1618 3712 238
5469 5672 236
4733 7063 262
2001 9118 262
4075 5838 236
3784 7900 262
5873 7226 262
311 7926 262
4436 5924 236
7986 8833 234
6003 7321 262
8803 9473 260
6885 8320 257
6599 6816 182
3781 3872 176
3391 4481 238
7597 9352 260
2708 5067 238
9446 9496 198
878 8079 262
3097 8551 262
7369 9986 260
9272 9943 242
2709 5396 238
466 1769 182
8874 9473 260
5138 8120 262
5888 6266 262
349 1554 182
2002 7623 262
7834 9412 260
7346 9564 260
8946 9651 260
9422 9501 198
2896 7471 262
5021 6655 262
994 4567 238
305 4831 238
3237 5556 238
8614 9068 247
5300 8474 262
5224 6169 236
6424 8362 257
4428 8506 262
2777 7716 262
9885 9971 242
4764 6069 236
53 1871 182
3092 7870 262
93 3683 217
2530 3555 217
1781 2293 183
7419 9958 260
6884 8333 257
3752 7197 262
9002 9570 260
5817 6597 262
280 5963 238
7193 7461 239
4867 8384 262
8565 8782 216
7827 7844 177
671 2011 182
2644 4238 238
4323 8932 262
2824 7648 262
9003 9336 260
3726 5467 215
3109 7857 262
3081 9191 262
5457 6614 262
3665 5888 238
9115 9528 260
3676 4031 238
4962 8742 262
408 5490 238
7996 9810 260
2859 9336 262
9534 9956 242
2178 6350 262
203 7032 262
4754 8075 262
7563 9399 260
9163 9389 260
4932 8951 262
3005 7261 262
3396 3433 150
6753 7122 257
3556 4753 238
5983 6247 262
917 7525 262
3839 4993 215
5620 7364 262
5058 8364 262
5183 5982 236
4176 7065 262
8306 9575 260
7068 9304 260
9538 9589 198
6463 7118 257
6517 6888 244
6202 8150 257
4042 6958 262
6253 7202 257
5731 7245 262
5439 7543 262
1791 8305 262
8968 9804 260
6874 7242 257
848 6169 238
2990 5077 238
9677 9800 198
20 2873 209
2323 3569 217
8237 9671 260
410 2685 209
2336 9279 262
986 4554 238
1289 9798 262
844 4887 238
518 7011 262
8368 9401 260
8594 9305 260
7134 9313 260
8846 9818 260
25 5520 238
6589 8892 257
1492 2403 183
4405 8427 262
51 5861 238
1843 3614 217
604 1712 182
9337 9570 198
4314 7502 262
5021 9206 262
3889 7264 262
4039 4159 189
8683 8765 216
1322 5539 238
991 5071 238
7019 8977 252
9932 9992 180
464 3807 238
8971 9418 260
5823 6940 262
2684 7729 262
5677 8760 262
1525 2303 183
8243 9651 260
1193 6311 262
7296 8631 252
5664 5711 205
2621 5412 238
4509 8547 262
5338 6229 262
8039 9709 260
6862 7497 257
9160 9945 260
2307 6665 262
212 2017 182
3036 3533 199
4033 6750 262
3621 7103 262
8565 9309 260
7685 7751 177
4575 5246 210
7716 8719 252
7407 8970 252
4067 5004 215
2181 3962 238
