Name             Stmts   Miss  Cover   Missing
----------------------------------------------
Collatz.py          48      0   100%
TestCollatz.py      53      0   100%
----------------------------------------------
TOTAL              101      0   100%
